<svg width="32" height="32" viewBox="0 0 32 32" fill="none" xmlns="http://www.w3.org/2000/svg">
<path d="M22.6667 14.6667H21.3333C20.9797 14.6667 20.6406 14.8071 20.3905 15.0572C20.1405 15.3072 20 15.6464 20 16C20 16.3536 20.1405 16.6928 20.3905 16.9428C20.6406 17.1929 20.9797 17.3333 21.3333 17.3333H22.6667C23.0203 17.3333 23.3594 17.1929 23.6095 16.9428C23.8595 16.6928 24 16.3536 24 16C24 15.6464 23.8595 15.3072 23.6095 15.0572C23.3594 14.8071 23.0203 14.6667 22.6667 14.6667ZM22.6667 20H21.3333C20.9797 20 20.6406 20.1405 20.3905 20.3905C20.1405 20.6406 20 20.9797 20 21.3333C20 21.687 20.1405 22.0261 20.3905 22.2761C20.6406 22.5262 20.9797 22.6667 21.3333 22.6667H22.6667C23.0203 22.6667 23.3594 22.5262 23.6095 22.2761C23.8595 22.0261 24 21.687 24 21.3333C24 20.9797 23.8595 20.6406 23.6095 20.3905C23.3594 20.1405 23.0203 20 22.6667 20ZM14.6667 12H22.6667C23.0203 12 23.3594 11.8595 23.6095 11.6095C23.8595 11.3594 24 11.0203 24 10.6667C24 10.313 23.8595 9.97391 23.6095 9.72386C23.3594 9.47381 23.0203 9.33333 22.6667 9.33333H14.6667C14.313 9.33333 13.9739 9.47381 13.7238 9.72386C13.4738 9.97391 13.3333 10.313 13.3333 10.6667C13.3333 11.0203 13.4738 11.3594 13.7238 11.6095C13.9739 11.8595 14.313 12 14.6667 12ZM28 4H9.33332C8.9797 4 8.64056 4.14048 8.39051 4.39052C8.14047 4.64057 7.99999 4.97971 7.99999 5.33333V9.33333H3.99999C3.64637 9.33333 3.30723 9.47381 3.05718 9.72386C2.80713 9.97391 2.66666 10.313 2.66666 10.6667V24C2.66666 25.0609 3.08808 26.0783 3.83823 26.8284C4.58838 27.5786 5.60579 28 6.66666 28H24C25.4145 28 26.771 27.4381 27.7712 26.4379C28.7714 25.4377 29.3333 24.0812 29.3333 22.6667V5.33333C29.3333 4.97971 29.1929 4.64057 28.9428 4.39052C28.6928 4.14048 28.3536 4 28 4ZM7.99999 24C7.99999 24.3536 7.85951 24.6928 7.60947 24.9428C7.35942 25.1929 7.02028 25.3333 6.66666 25.3333C6.31303 25.3333 5.9739 25.1929 5.72385 24.9428C5.4738 24.6928 5.33332 24.3536 5.33332 24V12H7.99999V24ZM26.6667 22.6667C26.6667 23.3739 26.3857 24.0522 25.8856 24.5523C25.3855 25.0524 24.7072 25.3333 24 25.3333H10.4267C10.5819 24.9058 10.6631 24.4549 10.6667 24V6.66667H26.6667V22.6667ZM14.6667 17.3333H16C16.3536 17.3333 16.6928 17.1929 16.9428 16.9428C17.1928 16.6928 17.3333 16.3536 17.3333 16C17.3333 15.6464 17.1928 15.3072 16.9428 15.0572C16.6928 14.8071 16.3536 14.6667 16 14.6667H14.6667C14.313 14.6667 13.9739 14.8071 13.7238 15.0572C13.4738 15.3072 13.3333 15.6464 13.3333 16C13.3333 16.3536 13.4738 16.6928 13.7238 16.9428C13.9739 17.1929 14.313 17.3333 14.6667 17.3333ZM14.6667 22.6667H16C16.3536 22.6667 16.6928 22.5262 16.9428 22.2761C17.1928 22.0261 17.3333 21.687 17.3333 21.3333C17.3333 20.9797 17.1928 20.6406 16.9428 20.3905C16.6928 20.1405 16.3536 20 16 20H14.6667C14.313 20 13.9739 20.1405 13.7238 20.3905C13.4738 20.6406 13.3333 20.9797 13.3333 21.3333C13.3333 21.687 13.4738 22.0261 13.7238 22.2761C13.9739 22.5262 14.313 22.6667 14.6667 22.6667Z" fill="#DD55C0"/>
</svg>
