<svg width="32" height="32" viewBox="0 0 32 32" fill="none" xmlns="http://www.w3.org/2000/svg">
<path d="M18.6667 14.6667V21.3333M5.33333 8H26.6667L24.56 26.96C24.4878 27.6125 24.1774 28.2154 23.6883 28.6533C23.1992 29.0913 22.5658 29.3334 21.9093 29.3333H10.0907C9.43418 29.3334 8.80075 29.0913 8.31166 28.6533C7.82258 28.2154 7.51221 27.6125 7.44 26.96L5.33333 8ZM9.79333 4.196C10.009 3.73862 10.3503 3.352 10.7773 3.08121C11.2044 2.81043 11.6997 2.66666 12.2053 2.66667H19.7947C20.3006 2.66641 20.7961 2.81006 21.2234 3.08086C21.6508 3.35165 21.9922 3.73842 22.208 4.196L24 8H8L9.79333 4.196V4.196ZM2.66666 8H29.3333H2.66666ZM13.3333 14.6667V21.3333V14.6667Z" stroke="#DD55C0" stroke-width="2" stroke-linecap="round" stroke-linejoin="round"/>
</svg>
